FolderName	UserRefId	DateTimeXml
sync_7610851_2021-07-06T00-12-37	185406	2021-07-05 22:12:30
sync_7610853_2021-07-06T00-14-36	167991	2021-07-05 22:14:30
sync_7610857_2021-07-06T00-18-36	240605	2021-07-05 22:18:30
sync_7610872_2021-07-06T00-33-49	202280	2021-07-05 22:33:31
sync_7610969_2021-07-06T02-10-39	127595	2021-07-06 00:10:31
sync_7611000_2021-07-06T02-41-38	220600	2021-07-06 00:41:31
sync_7611033_2021-07-06T03-14-36	176778	2021-07-06 01:14:30
sync_7611061_2021-07-06T03-42-36	166103	2021-07-06 01:42:30
sync_7611090_2021-07-06T04-11-37	158083	2021-07-06 02:11:31
sync_7611121_2021-07-06T04-42-36	147664	2021-07-06 02:42:29
sync_7611270_2021-07-06T07-11-36	238804	2021-07-06 05:11:30
sync_7611277_2021-07-06T07-18-42	148482	2021-07-06 05:18:29
sync_7611279_2021-07-06T07-20-37	148482	2021-07-06 05:20:30
sync_7611280_2021-07-06T07-21-37	130788	2021-07-06 05:21:30
sync_7611285_2021-07-06T07-26-54	159238	2021-07-06 05:26:29
sync_7611291_2021-07-06T07-32-37	143017	2021-07-06 05:32:30
sync_7611295_2021-07-06T07-36-36	264753	2021-07-06 05:36:29
sync_7611298_2021-07-06T07-39-36	241879	2021-07-06 05:39:29
sync_7611299_2021-07-06T07-40-37	190688	2021-07-06 05:40:30
sync_7611312_2021-07-06T07-53-35	151747	2021-07-06 05:53:29
sync_7611323_2021-07-06T08-04-53	255822	2021-07-06 06:04:29
sync_7611323_2021-07-06T08-04-53	255828	2021-07-06 06:04:29
sync_7611338_2021-07-06T08-19-45	127690	2021-07-06 06:19:29
sync_7611359_2021-07-06T08-41-03	226364	2021-07-06 06:40:30
sync_7611363_2021-07-06T08-44-39	151182	2021-07-06 06:44:31
sync_7611363_2021-07-06T08-44-39	226364	2021-07-06 06:44:31
sync_7611363_2021-07-06T08-44-39	263684	2021-07-06 06:44:31
sync_7611371_2021-07-06T08-52-36	232124	2021-07-06 06:52:30
sync_7611387_2021-07-06T09-08-36	266442	2021-07-06 07:08:30
sync_7611388_2021-07-06T09-09-36	266442	2021-07-06 07:09:30
sync_7611389_2021-07-06T09-10-41	262931	2021-07-06 07:10:29
sync_7611390_2021-07-06T09-11-37	127690	2021-07-06 07:11:30
sync_7611392_2021-07-06T09-13-37	265168	2021-07-06 07:13:30
sync_7611394_2021-07-06T09-15-37	127690	2021-07-06 07:15:30
sync_7611397_2021-07-06T09-18-36	226408	2021-07-06 07:18:30
sync_7611398_2021-07-06T09-19-36	155324	2021-07-06 07:19:29
sync_7611400_2021-07-06T09-21-36	266405	2021-07-06 07:21:30
sync_7611400_2021-07-06T09-21-36	266406	2021-07-06 07:21:30
sync_7611401_2021-07-06T09-22-35	266405	2021-07-06 07:22:30
sync_7611402_2021-07-06T09-23-37	148482	2021-07-06 07:23:30
sync_7611402_2021-07-06T09-23-37	209616	2021-07-06 07:23:30
sync_7611404_2021-07-06T09-25-38	264862	2021-07-06 07:25:31
sync_7611405_2021-07-06T09-26-49	122073	2021-07-06 07:26:30
sync_7611405_2021-07-06T09-26-49	123597	2021-07-06 07:26:30
sync_7611406_2021-07-06T09-27-38	264862	2021-07-06 07:27:31
sync_7611408_2021-07-06T09-29-38	266448	2021-07-06 07:29:30
sync_7611414_2021-07-06T09-35-37	123597	2021-07-06 07:35:31
sync_7611416_2021-07-06T09-37-37	204658	2021-07-06 07:37:30
sync_7611417_2021-07-06T09-38-37	135090	2021-07-06 07:38:30
sync_7611419_2021-07-06T09-40-42	131220	2021-07-06 07:40:30
sync_7611420_2021-07-06T09-41-38	187672	2021-07-06 07:41:31
sync_7611421_2021-07-06T09-43-00	182331	2021-07-06 07:42:33
sync_7611421_2021-07-06T09-43-00	184761	2021-07-06 07:42:33
sync_7611422_2021-07-06T09-43-37	239239	2021-07-06 07:43:30
sync_7611427_2021-07-06T09-48-56	170509	2021-07-06 07:48:30
sync_7611427_2021-07-06T09-48-56	172791	2021-07-06 07:48:30
sync_7611427_2021-07-06T09-48-56	183029	2021-07-06 07:48:30
sync_7611429_2021-07-06T09-50-36	255008	2021-07-06 07:50:30
sync_7611430_2021-07-06T09-51-36	255008	2021-07-06 07:51:30
sync_7611431_2021-07-06T09-52-38	131220	2021-07-06 07:52:31
sync_7611433_2021-07-06T09-54-37	266379	2021-07-06 07:54:30
sync_7611439_2021-07-06T10-00-37	261840	2021-07-06 08:00:30
sync_7611450_2021-07-06T10-11-47	176355	2021-07-06 08:11:29
sync_7611451_2021-07-06T10-12-37	213454	2021-07-06 08:12:30
sync_7611452_2021-07-06T10-13-38	201437	2021-07-06 08:13:31
sync_7611454_2021-07-06T10-15-44	151586	2021-07-06 08:15:31
sync_7611454_2021-07-06T10-15-44	170802	2021-07-06 08:15:31
sync_7611454_2021-07-06T10-15-44	174844	2021-07-06 08:15:31
sync_7611455_2021-07-06T10-16-43	173664	2021-07-06 08:16:30
sync_7611455_2021-07-06T10-16-43	232550	2021-07-06 08:16:30
sync_7611457_2021-07-06T10-19-02	232550	2021-07-06 08:18:30
sync_7611457_2021-07-06T10-19-02	237018	2021-07-06 08:18:30
sync_7611459_2021-07-06T10-20-53	249641	2021-07-06 08:20:31
sync_7611460_2021-07-06T10-21-36	133809	2021-07-06 08:21:30
sync_7611461_2021-07-06T10-22-38	170509	2021-07-06 08:22:31
sync_7611463_2021-07-06T10-24-48	123169	2021-07-06 08:24:30
sync_7611463_2021-07-06T10-24-48	133809	2021-07-06 08:24:30
sync_7611465_2021-07-06T10-26-44	182070	2021-07-06 08:26:35
sync_7611465_2021-07-06T10-26-44	232550	2021-07-06 08:26:35
sync_7611466_2021-07-06T10-27-50	133829	2021-07-06 08:27:30
sync_7611466_2021-07-06T10-27-50	257667	2021-07-06 08:27:30
sync_7611468_2021-07-06T10-29-37	249641	2021-07-06 08:29:30
sync_7611469_2021-07-06T10-30-38	119663	2021-07-06 08:30:32
sync_7611469_2021-07-06T10-30-38	249641	2021-07-06 08:30:32
sync_7611471_2021-07-06T10-32-35	119663	2021-07-06 08:32:29
sync_7611472_2021-07-06T10-33-37	119663	2021-07-06 08:33:31
sync_7611473_2021-07-06T10-34-38	133829	2021-07-06 08:34:30
sync_7611473_2021-07-06T10-34-38	239239	2021-07-06 08:34:30
sync_7611479_2021-07-06T10-40-37	135994	2021-07-06 08:40:30
sync_7611489_2021-07-06T10-50-50	174604	2021-07-06 08:50:31
sync_7611489_2021-07-06T10-50-50	178573	2021-07-06 08:50:31
sync_7611490_2021-07-06T10-51-39	174604	2021-07-06 08:51:31
sync_7611490_2021-07-06T10-51-39	261351	2021-07-06 08:51:31
sync_7611492_2021-07-06T10-53-42	254364	2021-07-06 08:53:35
sync_7611496_2021-07-06T10-57-38	125879	2021-07-06 08:57:30
sync_7611496_2021-07-06T10-57-38	174604	2021-07-06 08:57:30
sync_7611497_2021-07-06T10-58-37	182070	2021-07-06 08:58:31
sync_7611498_2021-07-06T11-00-04	164689	2021-07-06 08:59:30
sync_7611498_2021-07-06T11-00-04	182211	2021-07-06 08:59:30
sync_7611501_2021-07-06T11-02-37	141925	2021-07-06 09:02:30
sync_7611501_2021-07-06T11-02-37	143619	2021-07-06 09:02:30
sync_7611502_2021-07-06T11-03-38	164689	2021-07-06 09:03:31
sync_7611502_2021-07-06T11-03-38	239239	2021-07-06 09:03:31
sync_7611506_2021-07-06T11-07-54	176347	2021-07-06 09:07:31
sync_7611506_2021-07-06T11-07-54	218551	2021-07-06 09:07:31
sync_7611506_2021-07-06T11-07-54	258304	2021-07-06 09:07:31
sync_7611506_2021-07-06T11-07-54	258305	2021-07-06 09:07:31
sync_7611507_2021-07-06T11-08-43	143619	2021-07-06 09:08:30
sync_7611510_2021-07-06T11-11-42	176347	2021-07-06 09:11:34
sync_7611510_2021-07-06T11-11-42	178903	2021-07-06 09:11:34
sync_7611511_2021-07-06T11-12-50	210115	2021-07-06 09:12:34
sync_7611513_2021-07-06T11-14-36	162667	2021-07-06 09:14:30
sync_7611517_2021-07-06T11-18-36	139454	2021-07-06 09:18:30
sync_7611520_2021-07-06T11-21-35	176589	2021-07-06 09:21:30
sync_7611521_2021-07-06T11-22-37	160533	2021-07-06 09:22:30
sync_7611524_2021-07-06T11-25-58	198090	2021-07-06 09:25:31
sync_7611524_2021-07-06T11-25-58	208435	2021-07-06 09:25:31
sync_7611525_2021-07-06T11-26-38	161028	2021-07-06 09:26:30
sync_7611525_2021-07-06T11-26-38	250819	2021-07-06 09:26:30
sync_7611528_2021-07-06T11-29-44	142108	2021-07-06 09:29:30
sync_7611528_2021-07-06T11-29-44	186050	2021-07-06 09:29:30
sync_7611531_2021-07-06T11-32-36	219966	2021-07-06 09:32:30
sync_7611537_2021-07-06T11-38-36	146849	2021-07-06 09:38:30
sync_7611537_2021-07-06T11-38-36	211961	2021-07-06 09:38:30
sync_7611541_2021-07-06T11-42-38	143619	2021-07-06 09:42:31
sync_7611543_2021-07-06T11-44-45	142108	2021-07-06 09:44:30
sync_7611543_2021-07-06T11-44-45	155641	2021-07-06 09:44:30
sync_7611543_2021-07-06T11-44-45	189142	2021-07-06 09:44:30
sync_7611544_2021-07-06T11-45-37	141844	2021-07-06 09:45:30
sync_7611544_2021-07-06T11-45-37	262610	2021-07-06 09:45:30
sync_7611545_2021-07-06T11-46-38	142108	2021-07-06 09:46:30
sync_7611545_2021-07-06T11-46-38	258304	2021-07-06 09:46:30
sync_7611550_2021-07-06T11-51-37	133809	2021-07-06 09:51:30
sync_7611551_2021-07-06T11-52-37	232865	2021-07-06 09:52:30
sync_7611552_2021-07-06T11-53-43	147096	2021-07-06 09:53:30
sync_7611552_2021-07-06T11-53-43	172389	2021-07-06 09:53:30
sync_7611553_2021-07-06T11-54-39	182070	2021-07-06 09:54:32
sync_7611553_2021-07-06T11-54-39	262118	2021-07-06 09:54:32
sync_7611554_2021-07-06T11-55-36	142752	2021-07-06 09:55:30
sync_7611555_2021-07-06T11-56-57	176861	2021-07-06 09:56:31
sync_7611555_2021-07-06T11-56-57	209134	2021-07-06 09:56:31
sync_7611558_2021-07-06T11-59-38	140643	2021-07-06 09:59:31
sync_7611558_2021-07-06T11-59-38	264964	2021-07-06 09:59:31
sync_7611559_2021-07-06T12-00-36	232865	2021-07-06 10:00:30
sync_7611560_2021-07-06T12-01-35	232865	2021-07-06 10:01:29
sync_7611560_2021-07-06T12-01-35	266412	2021-07-06 10:01:29
sync_7611562_2021-07-06T12-03-36	263547	2021-07-06 10:03:30
sync_7611562_2021-07-06T12-03-36	266412	2021-07-06 10:03:30
sync_7611564_2021-07-06T12-05-49	187808	2021-07-06 10:05:30
sync_7611565_2021-07-06T12-06-37	232269	2021-07-06 10:06:30
sync_7611565_2021-07-06T12-06-37	266135	2021-07-06 10:06:30
sync_7611567_2021-07-06T12-08-38	233990	2021-07-06 10:08:31
sync_7611568_2021-07-06T12-09-36	236189	2021-07-06 10:09:30
sync_7611569_2021-07-06T12-10-36	140223	2021-07-06 10:10:30
sync_7611570_2021-07-06T12-11-40	172876	2021-07-06 10:11:33
sync_7611572_2021-07-06T12-13-37	190932	2021-07-06 10:13:30
sync_7611574_2021-07-06T12-15-40	166183	2021-07-06 10:15:33
sync_7611576_2021-07-06T12-17-37	174604	2021-07-06 10:17:30
sync_7611579_2021-07-06T12-20-36	182070	2021-07-06 10:20:30
sync_7611579_2021-07-06T12-20-36	264746	2021-07-06 10:20:30
sync_7611582_2021-07-06T12-23-35	259837	2021-07-06 10:23:29
sync_7611586_2021-07-06T12-27-45	254843	2021-07-06 10:27:33
sync_7611589_2021-07-06T12-31-14	223789	2021-07-06 10:30:31
sync_7611589_2021-07-06T12-31-14	238335	2021-07-06 10:30:31
sync_7611589_2021-07-06T12-31-14	239367	2021-07-06 10:30:31
sync_7611589_2021-07-06T12-31-14	260584	2021-07-06 10:30:31
sync_7611590_2021-07-06T12-31-37	234991	2021-07-06 10:31:30
sync_7611595_2021-07-06T12-36-38	203428	2021-07-06 10:36:31
sync_7611595_2021-07-06T12-36-38	206108	2021-07-06 10:36:31
sync_7611598_2021-07-06T12-39-46	190938	2021-07-06 10:39:30
sync_7611598_2021-07-06T12-39-46	214836	2021-07-06 10:39:30
sync_7611600_2021-07-06T12-42-11	186143	2021-07-06 10:41:35
sync_7611600_2021-07-06T12-42-11	195490	2021-07-06 10:41:35
sync_7611601_2021-07-06T12-42-35	266446	2021-07-06 10:42:29
sync_7611603_2021-07-06T12-44-49	125239	2021-07-06 10:44:34
sync_7611603_2021-07-06T12-44-49	266446	2021-07-06 10:44:34
sync_7611608_2021-07-06T12-49-38	182211	2021-07-06 10:49:31
sync_7611609_2021-07-06T12-50-42	172389	2021-07-06 10:50:30
sync_7611609_2021-07-06T12-50-42	261524	2021-07-06 10:50:30
sync_7611610_2021-07-06T12-52-01	144807	2021-07-06 10:51:45
sync_7611610_2021-07-06T12-52-01	222718	2021-07-06 10:51:45
sync_7611612_2021-07-06T12-53-37	234771	2021-07-06 10:53:30
sync_7611614_2021-07-06T12-55-45	144807	2021-07-06 10:55:30
sync_7611614_2021-07-06T12-55-45	242482	2021-07-06 10:55:30
sync_7611615_2021-07-06T12-56-38	122746	2021-07-06 10:56:30
sync_7611615_2021-07-06T12-56-38	190388	2021-07-06 10:56:30
sync_7611615_2021-07-06T12-56-38	239239	2021-07-06 10:56:30
sync_7611618_2021-07-06T12-59-37	164689	2021-07-06 10:59:31
sync_7611619_2021-07-06T13-00-56	167371	2021-07-06 11:00:30
sync_7611620_2021-07-06T13-01-39	214836	2021-07-06 11:01:32
sync_7611621_2021-07-06T13-02-53	167119	2021-07-06 11:02:30
sync_7611625_2021-07-06T13-06-37	122746	2021-07-06 11:06:30
sync_7611625_2021-07-06T13-06-37	132023	2021-07-06 11:06:30
sync_7611625_2021-07-06T13-06-37	239367	2021-07-06 11:06:30
sync_7611627_2021-07-06T13-08-42	134827	2021-07-06 11:08:29
sync_7611627_2021-07-06T13-08-42	228311	2021-07-06 11:08:29
sync_7611630_2021-07-06T13-11-35	131842	2021-07-06 11:11:29
sync_7611631_2021-07-06T13-12-35	131842	2021-07-06 11:12:29
sync_7611634_2021-07-06T13-15-38	137456	2021-07-06 11:15:31
sync_7611640_2021-07-06T13-21-46	217004	2021-07-06 11:21:30
sync_7611642_2021-07-06T13-24-05	161654	2021-07-06 11:23:50
sync_7611642_2021-07-06T13-24-05	172851	2021-07-06 11:23:50
sync_7611642_2021-07-06T13-24-05	226140	2021-07-06 11:23:50
sync_7611643_2021-07-06T13-24-48	236287	2021-07-06 11:24:30
sync_7611646_2021-07-06T13-27-37	197509	2021-07-06 11:27:30
sync_7611647_2021-07-06T13-28-37	210115	2021-07-06 11:28:30
sync_7611647_2021-07-06T13-28-37	218320	2021-07-06 11:28:30
sync_7611648_2021-07-06T13-29-53	127198	2021-07-06 11:29:30
sync_7611648_2021-07-06T13-29-53	132562	2021-07-06 11:29:30
sync_7611648_2021-07-06T13-29-53	224347	2021-07-06 11:29:30
sync_7611658_2021-07-06T13-39-36	147609	2021-07-06 11:39:30
sync_7611661_2021-07-06T13-42-37	234771	2021-07-06 11:42:30
sync_7611661_2021-07-06T13-42-37	266148	2021-07-06 11:42:30
sync_7611662_2021-07-06T13-43-36	149133	2021-07-06 11:43:30
sync_7611665_2021-07-06T13-46-36	233326	2021-07-06 11:46:30
sync_7611667_2021-07-06T13-48-37	167119	2021-07-06 11:48:30
sync_7611669_2021-07-06T13-50-35	180707	2021-07-06 11:50:29
sync_7611671_2021-07-06T13-52-35	180707	2021-07-06 11:52:29
sync_7611672_2021-07-06T13-53-39	180707	2021-07-06 11:53:30
sync_7611672_2021-07-06T13-53-39	202318	2021-07-06 11:53:30
sync_7611673_2021-07-06T13-54-37	122304	2021-07-06 11:54:30
sync_7611675_2021-07-06T13-56-57	215228	2021-07-06 11:56:31
sync_7611676_2021-07-06T13-57-35	165719	2021-07-06 11:57:29
sync_7611679_2021-07-06T14-00-37	158040	2021-07-06 12:00:30
sync_7611680_2021-07-06T14-01-42	206513	2021-07-06 12:01:30
sync_7611685_2021-07-06T14-06-43	252107	2021-07-06 12:06:31
sync_7611685_2021-07-06T14-06-43	266424	2021-07-06 12:06:31
sync_7611688_2021-07-06T14-09-36	266289	2021-07-06 12:09:30
sync_7611689_2021-07-06T14-10-38	266289	2021-07-06 12:10:32
sync_7611692_2021-07-06T14-13-44	266424	2021-07-06 12:13:30
sync_7611692_2021-07-06T14-13-44	266425	2021-07-06 12:13:30
sync_7611693_2021-07-06T14-14-37	266424	2021-07-06 12:14:30
sync_7611706_2021-07-06T14-27-37	249568	2021-07-06 12:27:30
sync_7611707_2021-07-06T14-28-47	209906	2021-07-06 12:28:30
sync_7611710_2021-07-06T14-31-40	123306	2021-07-06 12:31:32
sync_7611710_2021-07-06T14-31-40	133448	2021-07-06 12:31:32
sync_7611710_2021-07-06T14-31-40	256611	2021-07-06 12:31:32
sync_7611711_2021-07-06T14-33-03	173098	2021-07-06 12:32:31
sync_7611711_2021-07-06T14-33-03	174667	2021-07-06 12:32:31
sync_7611711_2021-07-06T14-33-03	209906	2021-07-06 12:32:31
sync_7611711_2021-07-06T14-33-03	251977	2021-07-06 12:32:31
sync_7611713_2021-07-06T14-34-37	174667	2021-07-06 12:34:31
sync_7611714_2021-07-06T14-36-03	152174	2021-07-06 12:35:31
sync_7611714_2021-07-06T14-36-03	154465	2021-07-06 12:35:31
sync_7611714_2021-07-06T14-36-03	225527	2021-07-06 12:35:31
sync_7611715_2021-07-06T14-36-49	239239	2021-07-06 12:36:42
sync_7611716_2021-07-06T14-37-45	213454	2021-07-06 12:37:38
sync_7611719_2021-07-06T14-40-37	225527	2021-07-06 12:40:30
sync_7611722_2021-07-06T14-43-37	171915	2021-07-06 12:43:30
sync_7611724_2021-07-06T14-45-53	151955	2021-07-06 12:45:32
sync_7611728_2021-07-06T14-49-37	212743	2021-07-06 12:49:30
sync_7611728_2021-07-06T14-49-37	213742	2021-07-06 12:49:30
sync_7611732_2021-07-06T14-53-41	233193	2021-07-06 12:53:32
sync_7611732_2021-07-06T14-53-41	254843	2021-07-06 12:53:32
sync_7611733_2021-07-06T14-54-56	236368	2021-07-06 12:54:35
sync_7611735_2021-07-06T14-56-43	158946	2021-07-06 12:56:30
sync_7611736_2021-07-06T14-57-37	234445	2021-07-06 12:57:30
sync_7611743_2021-07-06T15-04-43	133829	2021-07-06 13:04:31
sync_7611743_2021-07-06T15-04-43	223243	2021-07-06 13:04:31
sync_7611745_2021-07-06T15-06-38	189142	2021-07-06 13:06:31
sync_7611745_2021-07-06T15-06-38	236256	2021-07-06 13:06:31
sync_7611746_2021-07-06T15-07-44	223054	2021-07-06 13:07:30
sync_7611748_2021-07-06T15-09-49	120769	2021-07-06 13:09:31
sync_7611748_2021-07-06T15-09-49	123903	2021-07-06 13:09:31
sync_7611748_2021-07-06T15-09-49	265837	2021-07-06 13:09:31
sync_7611749_2021-07-06T15-10-39	158946	2021-07-06 13:10:31
sync_7611749_2021-07-06T15-10-39	223054	2021-07-06 13:10:31
sync_7611749_2021-07-06T15-10-39	240772	2021-07-06 13:10:31
sync_7611750_2021-07-06T15-11-51	186013	2021-07-06 13:11:30
sync_7611752_2021-07-06T15-13-35	192435	2021-07-06 13:13:29
sync_7611754_2021-07-06T15-15-40	223304	2021-07-06 13:15:33
sync_7611755_2021-07-06T15-16-54	233754	2021-07-06 13:16:30
sync_7611755_2021-07-06T15-16-54	240772	2021-07-06 13:16:30
sync_7611760_2021-07-06T15-21-37	261200	2021-07-06 13:21:30
sync_7611760_2021-07-06T15-21-37	266289	2021-07-06 13:21:30
sync_7611761_2021-07-06T15-22-47	125643	2021-07-06 13:22:31
sync_7611762_2021-07-06T15-23-38	180855	2021-07-06 13:23:32
sync_7611764_2021-07-06T15-25-37	176778	2021-07-06 13:25:31
sync_7611766_2021-07-06T15-27-38	194682	2021-07-06 13:27:31
sync_7611766_2021-07-06T15-27-38	214940	2021-07-06 13:27:31
sync_7611767_2021-07-06T15-28-49	127302	2021-07-06 13:28:30
sync_7611769_2021-07-06T15-31-35	214940	2021-07-06 13:30:36
sync_7611769_2021-07-06T15-31-35	237632	2021-07-06 13:30:36
sync_7611769_2021-07-06T15-31-35	237633	2021-07-06 13:30:36
sync_7611769_2021-07-06T15-31-35	265229	2021-07-06 13:30:36
sync_7611770_2021-07-06T15-32-36	126215	2021-07-06 13:32:30
sync_7611771_2021-07-06T15-33-39	132562	2021-07-06 13:33:32
sync_7611771_2021-07-06T15-33-39	242530	2021-07-06 13:33:32
sync_7611771_2021-07-06T15-33-39	265229	2021-07-06 13:33:32
sync_7611774_2021-07-06T15-37-02	242530	2021-07-06 13:36:34
sync_7611775_2021-07-06T15-37-42	134177	2021-07-06 13:37:29
sync_7611777_2021-07-06T15-39-37	134177	2021-07-06 13:39:30
sync_7611779_2021-07-06T15-41-37	174667	2021-07-06 13:41:30
sync_7611780_2021-07-06T15-42-37	237632	2021-07-06 13:42:30
sync_7611780_2021-07-06T15-42-37	263547	2021-07-06 13:42:30
sync_7611782_2021-07-06T15-44-36	125643	2021-07-06 13:44:30
sync_7611784_2021-07-06T15-46-36	178038	2021-07-06 13:46:30
sync_7611787_2021-07-06T15-49-46	224074	2021-07-06 13:49:29
sync_7611789_2021-07-06T15-51-40	157314	2021-07-06 13:51:33
sync_7611789_2021-07-06T15-51-40	224074	2021-07-06 13:51:33
sync_7611794_2021-07-06T15-57-01	139687	2021-07-06 13:56:30
sync_7611794_2021-07-06T15-57-01	140762	2021-07-06 13:56:30
sync_7611794_2021-07-06T15-57-01	187919	2021-07-06 13:56:30
sync_7611794_2021-07-06T15-57-01	234449	2021-07-06 13:56:30
sync_7611795_2021-07-06T15-57-37	145223	2021-07-06 13:57:30
sync_7611798_2021-07-06T16-00-39	259072	2021-07-06 14:00:32
sync_7611799_2021-07-06T16-01-41	240148	2021-07-06 14:01:30
sync_7611799_2021-07-06T16-01-41	266412	2021-07-06 14:01:30
sync_7611808_2021-07-06T16-10-44	155339	2021-07-06 14:10:37
sync_7611808_2021-07-06T16-10-44	158946	2021-07-06 14:10:37
sync_7611808_2021-07-06T16-10-44	243161	2021-07-06 14:10:37
sync_7611809_2021-07-06T16-11-44	174900	2021-07-06 14:11:30
sync_7611813_2021-07-06T16-15-44	188942	2021-07-06 14:15:31
sync_7611814_2021-07-06T16-16-48	147310	2021-07-06 14:16:30
sync_7611814_2021-07-06T16-16-48	155339	2021-07-06 14:16:30
sync_7611815_2021-07-06T16-17-37	205316	2021-07-06 14:17:30
sync_7611816_2021-07-06T16-18-36	228682	2021-07-06 14:18:30
sync_7611819_2021-07-06T16-21-55	215754	2021-07-06 14:21:30
sync_7611819_2021-07-06T16-21-55	263525	2021-07-06 14:21:30
sync_7611822_2021-07-06T16-24-49	216795	2021-07-06 14:24:30
sync_7611827_2021-07-06T16-29-36	266372	2021-07-06 14:29:30
sync_7611828_2021-07-06T16-30-37	266372	2021-07-06 14:30:31
sync_7611828_2021-07-06T16-30-37	266426	2021-07-06 14:30:31
sync_7611829_2021-07-06T16-31-37	263948	2021-07-06 14:31:30
sync_7611830_2021-07-06T16-32-36	266426	2021-07-06 14:32:29
sync_7611831_2021-07-06T16-33-36	187919	2021-07-06 14:33:29
sync_7611832_2021-07-06T16-34-37	252602	2021-07-06 14:34:30
sync_7611832_2021-07-06T16-34-37	266412	2021-07-06 14:34:30
sync_7611834_2021-07-06T16-36-49	184636	2021-07-06 14:36:29
sync_7611837_2021-07-06T16-39-55	216795	2021-07-06 14:39:30
sync_7611837_2021-07-06T16-39-55	234692	2021-07-06 14:39:30
sync_7611839_2021-07-06T16-41-39	131363	2021-07-06 14:41:31
sync_7611839_2021-07-06T16-41-39	185851	2021-07-06 14:41:31
sync_7611839_2021-07-06T16-41-39	235735	2021-07-06 14:41:31
sync_7611839_2021-07-06T16-41-39	264421	2021-07-06 14:41:31
sync_7611840_2021-07-06T16-42-37	184636	2021-07-06 14:42:30
sync_7611841_2021-07-06T16-43-37	186566	2021-07-06 14:43:31
sync_7611843_2021-07-06T16-45-38	209340	2021-07-06 14:45:31
sync_7611843_2021-07-06T16-45-38	216795	2021-07-06 14:45:31
sync_7611844_2021-07-06T16-46-37	216795	2021-07-06 14:46:30
sync_7611846_2021-07-06T16-48-37	188942	2021-07-06 14:48:30
sync_7611846_2021-07-06T16-48-37	266200	2021-07-06 14:48:30
sync_7611847_2021-07-06T16-49-36	188942	2021-07-06 14:49:30
sync_7611851_2021-07-06T16-53-53	199048	2021-07-06 14:53:30
sync_7611851_2021-07-06T16-53-53	235485	2021-07-06 14:53:30
sync_7611855_2021-07-06T16-57-35	266416	2021-07-06 14:57:29
sync_7611859_2021-07-06T17-01-37	265602	2021-07-06 15:01:31
sync_7611860_2021-07-06T17-02-44	253795	2021-07-06 15:02:31
sync_7611860_2021-07-06T17-02-44	266411	2021-07-06 15:02:31
sync_7611860_2021-07-06T17-02-44	266416	2021-07-06 15:02:31
sync_7611861_2021-07-06T17-03-42	260094	2021-07-06 15:03:30
sync_7611861_2021-07-06T17-03-42	266411	2021-07-06 15:03:30
sync_7611866_2021-07-06T17-08-45	172939	2021-07-06 15:08:30
sync_7611866_2021-07-06T17-08-45	266200	2021-07-06 15:08:30
sync_7611867_2021-07-06T17-09-44	190737	2021-07-06 15:09:30
sync_7611869_2021-07-06T17-11-36	183691	2021-07-06 15:11:30
sync_7611873_2021-07-06T17-15-39	234692	2021-07-06 15:15:32
sync_7611874_2021-07-06T17-16-37	151182	2021-07-06 15:16:30
sync_7611878_2021-07-06T17-20-36	234692	2021-07-06 15:20:30
sync_7611882_2021-07-06T17-24-37	172473	2021-07-06 15:24:30
sync_7611882_2021-07-06T17-24-37	216795	2021-07-06 15:24:30
sync_7611884_2021-07-06T17-26-36	254277	2021-07-06 15:26:30
sync_7611886_2021-07-06T17-28-44	260355	2021-07-06 15:28:30
sync_7611887_2021-07-06T17-29-37	223443	2021-07-06 15:29:30
sync_7611890_2021-07-06T17-32-37	123389	2021-07-06 15:32:30
sync_7611892_2021-07-06T17-35-06	223823	2021-07-06 15:34:30
sync_7611892_2021-07-06T17-35-06	241804	2021-07-06 15:34:30
sync_7611893_2021-07-06T17-35-38	187919	2021-07-06 15:35:31
sync_7611894_2021-07-06T17-36-37	260355	2021-07-06 15:36:30
sync_7611898_2021-07-06T17-40-54	169966	2021-07-06 15:40:31
sync_7611898_2021-07-06T17-40-54	254277	2021-07-06 15:40:31
sync_7611900_2021-07-06T17-42-37	223823	2021-07-06 15:42:30
sync_7611901_2021-07-06T17-43-36	254277	2021-07-06 15:43:30
sync_7611903_2021-07-06T17-45-40	260355	2021-07-06 15:45:33
sync_7611906_2021-07-06T17-48-37	186075	2021-07-06 15:48:30
sync_7611909_2021-07-06T17-51-36	186075	2021-07-06 15:51:29
sync_7611914_2021-07-06T17-56-37	215966	2021-07-06 15:56:30
sync_7611921_2021-07-06T18-03-37	199048	2021-07-06 16:03:31
sync_7611924_2021-07-06T18-06-39	199048	2021-07-06 16:06:31
sync_7611927_2021-07-06T18-09-36	263377	2021-07-06 16:09:30
sync_7611929_2021-07-06T18-11-37	199048	2021-07-06 16:11:30
sync_7611930_2021-07-06T18-12-38	190737	2021-07-06 16:12:31
sync_7611934_2021-07-06T18-16-37	199048	2021-07-06 16:16:30
sync_7611938_2021-07-06T18-20-46	263376	2021-07-06 16:20:29
sync_7611938_2021-07-06T18-20-46	263377	2021-07-06 16:20:29
sync_7611939_2021-07-06T18-21-36	266422	2021-07-06 16:21:30
sync_7611941_2021-07-06T18-23-38	266422	2021-07-06 16:23:29
sync_7611948_2021-07-06T18-31-09	122252	2021-07-06 16:30:31
sync_7611948_2021-07-06T18-31-09	124867	2021-07-06 16:30:31
sync_7611948_2021-07-06T18-31-09	240605	2021-07-06 16:30:31
sync_7611954_2021-07-06T18-36-37	254838	2021-07-06 16:36:30
sync_7611958_2021-07-06T18-40-48	212191	2021-07-06 16:40:29
sync_7611959_2021-07-06T18-41-37	212191	2021-07-06 16:41:30
sync_7611961_2021-07-06T18-43-36	266491	2021-07-06 16:43:30
sync_7611964_2021-07-06T18-46-43	266491	2021-07-06 16:46:30
sync_7611964_2021-07-06T18-46-43	266492	2021-07-06 16:46:30
sync_7611967_2021-07-06T18-49-45	227816	2021-07-06 16:49:30
sync_7611968_2021-07-06T18-50-37	227816	2021-07-06 16:50:30
sync_7611972_2021-07-06T18-54-37	212191	2021-07-06 16:54:30
sync_7611982_2021-07-06T19-04-49	266448	2021-07-06 17:04:31
sync_7611987_2021-07-06T19-09-37	192236	2021-07-06 17:09:30
sync_7611988_2021-07-06T19-10-41	164210	2021-07-06 17:10:31
sync_7611993_2021-07-06T19-15-45	210394	2021-07-06 17:15:31
sync_7612004_2021-07-06T19-26-37	260094	2021-07-06 17:26:31
sync_7612023_2021-07-06T19-45-37	262129	2021-07-06 17:45:30
sync_7612024_2021-07-06T19-46-38	262129	2021-07-06 17:46:31
sync_7612026_2021-07-06T19-48-38	206935	2021-07-06 17:48:30
sync_7612030_2021-07-06T19-53-03	169301	2021-07-06 17:52:30
sync_7612031_2021-07-06T19-53-37	127595	2021-07-06 17:53:30
sync_7612034_2021-07-06T19-56-38	169301	2021-07-06 17:56:31
sync_7612036_2021-07-06T19-58-44	153562	2021-07-06 17:58:34
sync_7612036_2021-07-06T19-58-44	263377	2021-07-06 17:58:34
sync_7612038_2021-07-06T20-00-39	137192	2021-07-06 18:00:30
sync_7612044_2021-07-06T20-06-36	171579	2021-07-06 18:06:30
sync_7612051_2021-07-06T20-13-37	164208	2021-07-06 18:13:31
sync_7612054_2021-07-06T20-16-52	164208	2021-07-06 18:16:32
sync_7612058_2021-07-06T20-20-46	190974	2021-07-06 18:20:35
sync_7612069_2021-07-06T20-31-45	266390	2021-07-06 18:31:35
sync_7612072_2021-07-06T20-34-51	183580	2021-07-06 18:34:30
sync_7612072_2021-07-06T20-34-51	262187	2021-07-06 18:34:30
sync_7612077_2021-07-06T20-39-37	243327	2021-07-06 18:39:30
sync_7612082_2021-07-06T20-44-39	137192	2021-07-06 18:44:32
sync_7612098_2021-07-06T21-00-39	183580	2021-07-06 19:00:31
sync_7612106_2021-07-06T21-08-45	129208	2021-07-06 19:08:30
sync_7612112_2021-07-06T21-14-36	210607	2021-07-06 19:14:29
sync_7612115_2021-07-06T21-17-37	187361	2021-07-06 19:17:31
sync_7612116_2021-07-06T21-18-44	210607	2021-07-06 19:18:29
sync_7612130_2021-07-06T21-32-40	189857	2021-07-06 19:32:33
sync_7612142_2021-07-06T21-44-37	231664	2021-07-06 19:44:30
sync_7612155_2021-07-06T21-57-37	147325	2021-07-06 19:57:30
sync_7612156_2021-07-06T21-58-37	236256	2021-07-06 19:58:30
sync_7612204_2021-07-06T22-48-13	155285	2021-07-06 20:46:31
sync_7612204_2021-07-06T22-48-13	166912	2021-07-06 20:46:31
sync_7612204_2021-07-06T22-48-13	172863	2021-07-06 20:46:31
sync_7612204_2021-07-06T22-48-13	179171	2021-07-06 20:46:31
sync_7612204_2021-07-06T22-48-13	219965	2021-07-06 20:46:31
sync_7612204_2021-07-06T22-48-13	224157	2021-07-06 20:46:31
sync_7612204_2021-07-06T22-48-13	228682	2021-07-06 20:46:31
sync_7612204_2021-07-06T22-48-13	231755	2021-07-06 20:46:31
sync_7612204_2021-07-06T22-48-13	249894	2021-07-06 20:46:31
sync_7612205_2021-07-06T22-48-37	250045	2021-07-06 20:48:31
sync_7612211_2021-07-06T22-54-37	172863	2021-07-06 20:54:30
sync_7612218_2021-07-06T23-01-49	213454	2021-07-06 21:01:38
sync_7612221_2021-07-06T23-04-46	125840	2021-07-06 21:04:32
sync_7612222_2021-07-06T23-06-03	120037	2021-07-06 21:05:33
sync_7612247_2021-07-06T23-30-35	266005	2021-07-06 21:30:29
sync_7612251_2021-07-06T23-35-02	231754	2021-07-06 21:34:30
sync_7612251_2021-07-06T23-35-02	266005	2021-07-06 21:34:30
sync_7612271_2021-07-06T23-54-44	219877	2021-07-06 21:54:29
sync_7612272_2021-07-06T23-55-37	219877	2021-07-06 21:55:30
sync_7612273_2021-07-06T23-56-50	182582	2021-07-06 21:56:29
